STATS506_ProblemSet6
…
Fielding %>%
  filter(!is.na(PO), !is.na(A), !is.na(InnOuts), InnOuts > 0) %>%
  mutate(RF = calculate_rf(.)) -> Fielding

Avg_RF

Fielding %>%
  group_by(teamID) %>%
  summarize(Avg_RF = mean(RF, na.rm = TRUE), .groups = "drop") %>%
  arrange(-Avg_RF)

# A tibble: 140 × 2
   teamID Avg_RF
   <chr>   <dbl>
 1 RC1     0.574
 2 LS1     0.530
 3 ELI     0.527
 4 MLU     0.513
 5 KEO     0.512
 6 RIC     0.509
 7 BLA     0.495
 8 LS3     0.489
 9 TRN     0.481
10 PHU     0.481
# ℹ 130 more rows
…
Time difference of 2.067537 secs

# Summarizing the results
result1 <- d1 %>%
  group_by(stratum) %>%
  summarise(
    mean_RF = mean(bootstrap_sample, na.rm = TRUE),
    std_error = sd(bootstrap_sample, na.rm = TRUE)
  )

result1

# A tibble: 140 × 3
   stratum mean_RF std_error
   <chr>     <dbl>     <dbl>
 1 ALT       0.395     0.311
 2 ANA       0.408     0.333
 3 ARI       0.367     0.345
 4 ATL       0.390     0.320
 5 BAL       0.404     0.332
 6 BFN       0.433     0.316
 7 BFP       0.431     0.366
 8 BL1       0.426     0.293
 9 BL2       0.403     0.325
10 BL3       0.456     0.314
# ℹ 130 more rows
…
Time difference of 1.318002 secs

# Summarizing the results
result2 <- d2 %>%
  group_by(stratum) %>%
  summarise(
    mean_RF = mean(bootstrap_sample, na.rm = TRUE),
    std_error = sd(bootstrap_sample, na.rm = TRUE)
  )

 result2

# A tibble: 140 × 3
   stratum mean_RF std_error
   <chr>     <dbl>     <dbl>
 1 ALT       0.386     0.307
 2 ANA       0.394     0.321
 3 ARI       0.384     0.356
 4 ATL       0.390     0.360
 5 BAL       0.388     0.343
 6 BFN       0.455     0.318
 7 BFP       0.462     0.388
 8 BL1       0.442     0.305
 9 BL2       0.409     0.315
10 BL3       0.446     0.312
# ℹ 130 more rows
…
Time difference of 7.274712 secs

# Summarizing the results
result3 <- d3 %>%
  group_by(stratum) %>%
  summarise(
    mean_RF = mean(bootstrap_sample, na.rm = TRUE),
    std_error = sd(bootstrap_sample, na.rm = TRUE)
  )

result3

# A tibble: 140 × 3
   stratum mean_RF std_error
   <chr>     <dbl>     <dbl>
 1 ALT       0.399     0.323
 2 ANA       0.400     0.322
 3 ARI       0.360     0.362
 4 ATL       0.370     0.306
 5 BAL       0.400     0.331
 6 BFN       0.487     0.355
 7 BFP       0.456     0.389
 8 BL1       0.435     0.294
 9 BL2       0.401     0.320
10 BL3       0.441     0.309
# ℹ 130 more rows
…
